com/hectorcode/springApplication/student/StudentController.class
com/hectorcode/springApplication/Application.class
com/hectorcode/springApplication/student/StudentService.class
com/hectorcode/springApplication/student/Student.class
com/hectorcode/springApplication/student/StudentRepository.class
com/hectorcode/springApplication/student/StudentConfig.class
